D:\65160174\reDta\Duoble_Linked\src\main\java\com\mycompany\duoble_linked\LinkStackApp.java
D:\65160174\reDta\Duoble_Linked\src\main\java\com\mycompany\duoble_linked\Duoble_Linked.java
D:\65160174\reDta\Duoble_Linked\src\main\java\com\mycompany\duoble_linked\StackLink.java
D:\65160174\reDta\Duoble_Linked\src\main\java\com\mycompany\duoble_linked\LinkStack.java
D:\65160174\reDta\Duoble_Linked\src\main\java\com\mycompany\duoble_linked\Link.java
D:\65160174\reDta\Duoble_Linked\src\main\java\com\mycompany\duoble_linked\LinkList.java
